Chapter 1 Reproducible Research | Portfolio Ghislaine
…
1.1 C.elegans plate experiment

For this experiment, adult C.elegans nematodes have been exposed to varying concentrations of different compounds.
The data that is used for this exercise is supplied y J. Louter (INT/ILC).

At first we had to review the Excel file with all the data. The file is called ./data.CE.LIQ.FLOW.062_Tidydata.xlsx.
Something that stood out to me was that the different compounds were measured in nM. But the ethanol and the meduim of the cells was measured in percentage.

The compounds used in this experiment are: 2,6-diisopropylnaphthalene, Decane and Naphthalene with as positive control group 1,5% Ethanol in S-Medium and as negative control group just S-Medium.

elegansData <- read_excel(here("port_data/CE.LIQ.FLOW.062_Tidydata.xlsx"))
tibble(elegansData)

## # A tibble: 360 × 34
##    plateRow plateCo…¹ vialNr dropC…² expType expRe…³ expName expDate            
##    <lgl>    <lgl>      <dbl> <chr>   <chr>     <dbl> <chr>   <dttm>             
##  1 NA       NA             1 a       experi…       3 CE.LIQ… 2020-11-30 00:00:00
##  2 NA       NA             1 b       experi…       3 CE.LIQ… 2020-11-30 00:00:00
##  3 NA       NA             1 c       experi…       3 CE.LIQ… 2020-11-30 00:00:00
##  4 NA       NA             1 d       experi…       3 CE.LIQ… 2020-11-30 00:00:00
##  5 NA       NA             1 e       experi…       3 CE.LIQ… 2020-11-30 00:00:00
##  6 NA       NA             2 a       experi…       3 CE.LIQ… 2020-11-30 00:00:00
##  7 NA       NA             2 b       experi…       3 CE.LIQ… 2020-11-30 00:00:00
##  8 NA       NA             2 c       experi…       3 CE.LIQ… 2020-11-30 00:00:00
##  9 NA       NA             2 d       experi…       3 CE.LIQ… 2020-11-30 00:00:00
## 10 NA       NA             2 e       experi…       3 CE.LIQ… 2020-11-30 00:00:00
## # … with 350 more rows, 26 more variables: expResearcher <chr>, expTime <dbl>,
## #   expUnit <chr>, expVolumeCounted <dbl>, RawData <dbl>, compCASRN <chr>,
## #   compName <chr>, compConcentration <chr>, compUnit <chr>,
## #   compDelivery <chr>, compVehicle <chr>, elegansStrain <chr>,
## #   elegansInput <dbl>, bacterialStrain <chr>, bacterialTreatment <chr>,
## #   bacterialOD600 <dbl>, bacterialConcX <dbl>, bacterialVolume <dbl>,
## #   bacterialVolUnit <chr>, incubationVial <chr>, incubationVolume <dbl>, …
…
